unit_delay.vcd
$date
	Sat Nov 15 15:06:11 2025
$end
$version
	Icarus Verilog
$end
$timescale
	1ns
$end
$scope module testbench $end
$var wire 1 ! cout $end
$var wire 32 " ans [31:0] $end
$var wire 1 # V $end
$var reg 32 $ A [31:0] $end
$var reg 32 % B [31:0] $end
$var reg 1 & SUB $end
$var reg 64 ' t0 [63:0] $end
$scope module adder $end
$var wire 32 ( A [31:0] $end
$var wire 32 ) B [31:0] $end
$var wire 1 & SUB $end
$var wire 1 # V $end
$var wire 1 ! cout $end
$var wire 32 * ans [31:0] $end
$var wire 33 + C [32:0] $end
$var wire 32 , Bx [31:0] $end
$scope module fa0 $end
$var wire 1 - a $end
$var wire 1 . b $end
$var wire 1 / cin $end
$var wire 1 0 cout $end
$var wire 1 1 sum $end
$var wire 1 2 w1 $end
$var wire 1 3 w2 $end
$var wire 1 4 w3 $end
$var wire 1 5 w4 $end
$upscope $end
$scope module fa1 $end
$var wire 1 6 a $end
$var wire 1 7 b $end
$var wire 1 8 cin $end
$var wire 1 9 cout $end
$var wire 1 : sum $end
$var wire 1 ; w1 $end
$var wire 1 < w2 $end
$var wire 1 = w3 $end
$var wire 1 > w4 $end
$upscope $end
$scope module fa10 $end
$var wire 1 ? a $end
$var wire 1 @ b $end
$var wire 1 A cin $end
$var wire 1 B cout $end
$var wire 1 C sum $end
$var wire 1 D w1 $end
$var wire 1 E w2 $end
$var wire 1 F w3 $end
$var wire 1 G w4 $end
$upscope $end
$scope module fa11 $end
$var wire 1 H a $end
$var wire 1 I b $end
$var wire 1 J cin $end
$var wire 1 K cout $end
$var wire 1 L sum $end
$var wire 1 M w1 $end
$var wire 1 N w2 $end
$var wire 1 O w3 $end
$var wire 1 P w4 $end
$upscope $end
$scope module fa12 $end
$var wire 1 Q a $end
$var wire 1 R b $end
$var wire 1 S cin $end
$var wire 1 T cout $end
$var wire 1 U sum $end
$var wire 1 V w1 $end
$var wire 1 W w2 $end
$var wire 1 X w3 $end
$var wire 1 Y w4 $end
$upscope $end
$scope module fa13 $end
$var wire 1 Z a $end
$var wire 1 [ b $end
$var wire 1 \ cin $end
$var wire 1 ] cout $end
$var wire 1 ^ sum $end
$var wire 1 _ w1 $end
$var wire 1 ` w2 $end
$var wire 1 a w3 $end
$var wire 1 b w4 $end
$upscope $end
$scope module fa14 $end
$var wire 1 c a $end
$var wire 1 d b $end
$var wire 1 e cin $end
$var wire 1 f cout $end
$var wire 1 g sum $end
$var wire 1 h w1 $end
$var wire 1 i w2 $end
$var wire 1 j w3 $end
$var wire 1 k w4 $end
$upscope $end
$scope module fa15 $end
$var wire 1 l a $end
$var wire 1 m b $end
$var wire 1 n cin $end
$var wire 1 o cout $end
$var wire 1 p sum $end
$var wire 1 q w1 $end
$var wire 1 r w2 $end
$var wire 1 s w3 $end
$var wire 1 t w4 $end
$upscope $end
$scope module fa16 $end
$var wire 1 u a $end
$var wire 1 v b $end
$var wire 1 w cin $end
$var wire 1 x cout $end
$var wire 1 y sum $end
$var wire 1 z w1 $end
$var wire 1 { w2 $end
$var wire 1 | w3 $end
$var wire 1 } w4 $end
$upscope $end
$scope module fa17 $end
$var wire 1 ~ a $end
$var wire 1 !" b $end
$var wire 1 "" cin $end
$var wire 1 #" cout $end
$var wire 1 $" sum $end
$var wire 1 %" w1 $end
$var wire 1 &" w2 $end
$var wire 1 '" w3 $end
$var wire 1 (" w4 $end
$upscope $end
$scope module fa18 $end
$var wire 1 )" a $end
$var wire 1 *" b $end
$var wire 1 +" cin $end
$var wire 1 ," cout $end
$var wire 1 -" sum $end
$var wire 1 ." w1 $end
$var wire 1 /" w2 $end
$var wire 1 0" w3 $end
$var wire 1 1" w4 $end
$upscope $end
$scope module fa19 $end
$var wire 1 2" a $end
$var wire 1 3" b $end
$var wire 1 4" cin $end
$var wire 1 5" cout $end
$var wire 1 6" sum $end
$var wire 1 7" w1 $end
$var wire 1 8" w2 $end
$var wire 1 9" w3 $end
$var wire 1 :" w4 $end
$upscope $end
$scope module fa2 $end
$var wire 1 ;" a $end
$var wire 1 <" b $end
$var wire 1 =" cin $end
$var wire 1 >" cout $end
$var wire 1 ?" sum $end
$var wire 1 @" w1 $end
$var wire 1 A" w2 $end
$var wire 1 B" w3 $end
$var wire 1 C" w4 $end
$upscope $end
$scope module fa20 $end
$var wire 1 D" a $end
$var wire 1 E" b $end
$var wire 1 F" cin $end
$var wire 1 G" cout $end
$var wire 1 H" sum $end
$var wire 1 I" w1 $end
$var wire 1 J" w2 $end
$var wire 1 K" w3 $end
$var wire 1 L" w4 $end
$upscope $end
$scope module fa21 $end
$var wire 1 M" a $end
$var wire 1 N" b $end
$var wire 1 O" cin $end
$var wire 1 P" cout $end
$var wire 1 Q" sum $end
$var wire 1 R" w1 $end
$var wire 1 S" w2 $end
$var wire 1 T" w3 $end
$var wire 1 U" w4 $end
$upscope $end
$scope module fa22 $end
$var wire 1 V" a $end
$var wire 1 W" b $end
$var wire 1 X" cin $end
$var wire 1 Y" cout $end
$var wire 1 Z" sum $end
$var wire 1 [" w1 $end
$var wire 1 \" w2 $end
$var wire 1 ]" w3 $end
$var wire 1 ^" w4 $end
$upscope $end
$scope module fa23 $end
$var wire 1 _" a $end
$var wire 1 `" b $end
$var wire 1 a" cin $end
$var wire 1 b" cout $end
$var wire 1 c" sum $end
$var wire 1 d" w1 $end
$var wire 1 e" w2 $end
$var wire 1 f" w3 $end
$var wire 1 g" w4 $end
$upscope $end
$scope module fa24 $end
$var wire 1 h" a $end
$var wire 1 i" b $end
$var wire 1 j" cin $end
$var wire 1 k" cout $end
$var wire 1 l" sum $end
$var wire 1 m" w1 $end
$var wire 1 n" w2 $end
$var wire 1 o" w3 $end
$var wire 1 p" w4 $end
$upscope $end
$scope module fa25 $end
$var wire 1 q" a $end
$var wire 1 r" b $end
$var wire 1 s" cin $end
$var wire 1 t" cout $end
$var wire 1 u" sum $end
$var wire 1 v" w1 $end
$var wire 1 w" w2 $end
$var wire 1 x" w3 $end
$var wire 1 y" w4 $end
$upscope $end
$scope module fa26 $end
$var wire 1 z" a $end
$var wire 1 {" b $end
$var wire 1 |" cin $end
$var wire 1 }" cout $end
$var wire 1 ~" sum $end
$var wire 1 !# w1 $end
$var wire 1 "# w2 $end
$var wire 1 ## w3 $end
$var wire 1 $# w4 $end
$upscope $end
$scope module fa27 $end
$var wire 1 %# a $end
$var wire 1 &# b $end
$var wire 1 '# cin $end
$var wire 1 (# cout $end
$var wire 1 )# sum $end
$var wire 1 *# w1 $end
$var wire 1 +# w2 $end
$var wire 1 ,# w3 $end
$var wire 1 -# w4 $end
$upscope $end
$scope module fa28 $end
$var wire 1 .# a $end
$var wire 1 /# b $end
$var wire 1 0# cin $end
$var wire 1 1# cout $end
$var wire 1 2# sum $end
$var wire 1 3# w1 $end
$var wire 1 4# w2 $end
$var wire 1 5# w3 $end
$var wire 1 6# w4 $end
$upscope $end
$scope module fa29 $end
$var wire 1 7# a $end
$var wire 1 8# b $end
$var wire 1 9# cin $end
$var wire 1 :# cout $end
$var wire 1 ;# sum $end
$var wire 1 <# w1 $end
$var wire 1 =# w2 $end
$var wire 1 ># w3 $end
$var wire 1 ?# w4 $end
$upscope $end
$scope module fa3 $end
$var wire 1 @# a $end
$var wire 1 A# b $end
$var wire 1 B# cin $end
$var wire 1 C# cout $end
$var wire 1 D# sum $end
$var wire 1 E# w1 $end
$var wire 1 F# w2 $end
$var wire 1 G# w3 $end
$var wire 1 H# w4 $end
$upscope $end
$scope module fa30 $end
$var wire 1 I# a $end
$var wire 1 J# b $end
$var wire 1 K# cin $end
$var wire 1 L# cout $end
$var wire 1 M# sum $end
$var wire 1 N# w1 $end
$var wire 1 O# w2 $end
$var wire 1 P# w3 $end
$var wire 1 Q# w4 $end
$upscope $end
$scope module fa31 $end
$var wire 1 R# a $end
$var wire 1 S# b $end
$var wire 1 T# cin $end
$var wire 1 U# cout $end
$var wire 1 V# sum $end
$var wire 1 W# w1 $end
$var wire 1 X# w2 $end
$var wire 1 Y# w3 $end
$var wire 1 Z# w4 $end
$upscope $end
$scope module fa4 $end
$var wire 1 [# a $end
$var wire 1 \# b $end
$var wire 1 ]# cin $end
$var wire 1 ^# cout $end
$var wire 1 _# sum $end
$var wire 1 `# w1 $end
$var wire 1 a# w2 $end
$var wire 1 b# w3 $end
$var wire 1 c# w4 $end
$upscope $end
$scope module fa5 $end
$var wire 1 d# a $end
$var wire 1 e# b $end
$var wire 1 f# cin $end
$var wire 1 g# cout $end
$var wire 1 h# sum $end
$var wire 1 i# w1 $end
$var wire 1 j# w2 $end
$var wire 1 k# w3 $end
$var wire 1 l# w4 $end
$upscope $end
$scope module fa6 $end
$var wire 1 m# a $end
$var wire 1 n# b $end
$var wire 1 o# cin $end
$var wire 1 p# cout $end
$var wire 1 q# sum $end
$var wire 1 r# w1 $end
$var wire 1 s# w2 $end
$var wire 1 t# w3 $end
$var wire 1 u# w4 $end
$upscope $end
$scope module fa7 $end
$var wire 1 v# a $end
$var wire 1 w# b $end
$var wire 1 x# cin $end
$var wire 1 y# cout $end
$var wire 1 z# sum $end
$var wire 1 {# w1 $end
$var wire 1 |# w2 $end
$var wire 1 }# w3 $end
$var wire 1 ~# w4 $end
$upscope $end
$scope module fa8 $end
$var wire 1 !$ a $end
$var wire 1 "$ b $end
$var wire 1 #$ cin $end
$var wire 1 $$ cout $end
$var wire 1 %$ sum $end
$var wire 1 &$ w1 $end
$var wire 1 '$ w2 $end
$var wire 1 ($ w3 $end
$var wire 1 )$ w4 $end
$upscope $end
$scope module fa9 $end
$var wire 1 *$ a $end
$var wire 1 +$ b $end
$var wire 1 ,$ cin $end
$var wire 1 -$ cout $end
$var wire 1 .$ sum $end
$var wire 1 /$ w1 $end
$var wire 1 0$ w2 $end
$var wire 1 1$ w3 $end
$var wire 1 2$ w4 $end
$upscope $end
$upscope $end
$upscope $end
$enddefinitions $end
#0
$dumpvars
x2$
x1$
x0$
x/$
x.$
x-$
x,$
x+$
x*$
x)$
x($
x'$
x&$
x%$
x$$
x#$
x"$
x!$
x~#
x}#
x|#
x{#
xz#
xy#
xx#
xw#
xv#
xu#
xt#
xs#
xr#
xq#
xp#
xo#
xn#
xm#
xl#
xk#
xj#
xi#
xh#
xg#
xf#
xe#
xd#
xc#
xb#
xa#
x`#
x_#
x^#
x]#
x\#
x[#
xZ#
xY#
xX#
xW#
xV#
xU#
xT#
xS#
xR#
xQ#
xP#
xO#
xN#
xM#
xL#
xK#
xJ#
xI#
xH#
xG#
xF#
xE#
xD#
xC#
xB#
xA#
x@#
x?#
x>#
x=#
x<#
x;#
x:#
x9#
x8#
x7#
x6#
x5#
x4#
x3#
x2#
x1#
x0#
x/#
x.#
x-#
x,#
x+#
x*#
x)#
x(#
x'#
x&#
x%#
x$#
x##
x"#
x!#
x~"
x}"
x|"
x{"
xz"
xy"
xx"
xw"
xv"
xu"
xt"
xs"
xr"
xq"
xp"
xo"
xn"
xm"
xl"
xk"
xj"
xi"
xh"
xg"
xf"
xe"
xd"
xc"
xb"
xa"
x`"
x_"
x^"
x]"
x\"
x["
xZ"
xY"
xX"
xW"
xV"
xU"
xT"
xS"
xR"
xQ"
xP"
xO"
xN"
xM"
xL"
xK"
xJ"
xI"
xH"
xG"
xF"
xE"
xD"
xC"
xB"
xA"
x@"
x?"
x>"
x="
x<"
x;"
x:"
x9"
x8"
x7"
x6"
x5"
x4"
x3"
x2"
x1"
x0"
x/"
x."
x-"
x,"
x+"
x*"
x)"
x("
x'"
x&"
x%"
x$"
x#"
x""
x!"
x~
x}
x|
x{
xz
xy
xx
xw
xv
xu
xt
xs
xr
xq
xp
xo
xn
xm
xl
xk
xj
xi
xh
xg
xf
xe
xd
xc
xb
xa
x`
x_
x^
x]
x\
x[
xZ
xY
xX
xW
xV
xU
xT
xS
xR
xQ
xP
xO
xN
xM
xL
xK
xJ
xI
xH
xG
xF
xE
xD
xC
xB
xA
x@
x?
x>
x=
x<
x;
x:
x9
x8
x7
x6
x5
x4
x3
x2
x1
x0
x/
x.
x-
bx ,
bx +
bx *
bx )
bx (
bx '
x&
bx %
bx $
x#
bx "
x!
$end
#10
0/
1-
06
0;"
0@#
0[#
1d#
0m#
0v#
0!$
0*$
0?
0H
0Q
0Z
0c
0l
0u
0~
0)"
02"
0D"
0M"
0V"
0_"
0h"
0q"
0z"
0%#
0.#
07#
0I#
0R#
bx0 +
0&
b100010 %
b100010 )
b100001 $
b100001 (
b1010 '
#11
0.
17
0<"
0A#
0\#
1e#
0n#
0w#
0"$
0+$
0@
0I
0R
0[
0d
0m
0v
0!"
0*"
03"
0E"
0N"
0W"
0`"
0i"
0r"
0{"
0&#
0/#
08#
0J#
0S#
03
04
0=
0>
0B"
0C"
0G#
0H#
0b#
0c#
0t#
0u#
0}#
0~#
0($
0)$
01$
02$
0F
0G
0O
0P
0X
0Y
0a
0b
0j
0k
0s
0t
0|
0}
0'"
0("
00"
01"
09"
0:"
0K"
0L"
0T"
0U"
0]"
0^"
0f"
0g"
0o"
0p"
0x"
0y"
0##
0$#
0,#
0-#
05#
06#
0>#
0?#
0P#
0Q#
0Y#
0Z#
b100010 ,
#12
12
05
1;
0@"
0A"
0E#
0F#
0`#
0a#
0i#
1l#
0r#
0s#
0{#
0|#
0&$
0'$
0/$
00$
0D
0E
0M
0N
0V
0W
0_
0`
0h
0i
0q
0r
0z
0{
0%"
0&"
0."
0/"
07"
08"
0I"
0J"
0R"
0S"
0["
0\"
0d"
0e"
0m"
0n"
0v"
0w"
0!#
0"#
0*#
0+#
03#
04#
0<#
0=#
0N#
0O#
0W#
0X#
#13
0#
08
0B#
0]#
0f#
1o#
0x#
0#$
0,$
0A
0J
0S
0\
0e
0n
0w
0""
0+"
04"
0F"
0O"
0X"
0a"
0j"
0s"
0|"
0'#
00#
09#
0K#
0T#
0!
bx1 "
bx1 *
11
00
0>"
0C#
0^#
1g#
0p#
0y#
0$$
0-$
0B
0K
0T
0]
0f
0o
0x
0#"
0,"
05"
0G"
0P"
0Y"
0b"
0k"
0t"
0}"
0(#
01#
0:#
0L#
b1000x00 +
0U#
#14
1:
0<
0D#
0_#
0h#
0j#
0k#
1q#
0z#
0%$
0.$
0C
0L
0U
0^
0g
0p
0y
0$"
0-"
06"
0H"
0Q"
0Z"
0c"
0l"
0u"
0~"
0)#
02#
0;#
0M#
b1000x11 "
b1000x11 *
0V#
#15
0="
b1000000 +
09
#16
b1000011 "
b1000011 *
0?"
#90
16
1;"
1@#
1[#
1v#
1!$
1Q
1Z
1l
1u
1~
1M"
1V"
1_"
1h"
1.#
17#
1I#
1R#
b111110111101101111111101 %
b111110111101101111111101 )
b11110001111000111011000110111111 $
b11110001111000111011000110111111 (
b1011010 '
#91
1.
07
1<"
1A#
1\#
1n#
1w#
1"$
1+$
1I
1R
1d
1m
1v
1!"
13"
1E"
1N"
1W"
1`"
b111110111101101111111101 ,
0;
1>
1@"
1E#
1`#
1{#
1&$
1V
1_
1q
1z
1%"
1R"
1["
1d"
1m"
13#
1<#
1N#
1W#
#92
1="
02
15
1;
0>
0@"
1C"
0E#
1H#
0`#
1c#
1r#
1s#
0{#
1~#
0&$
1)$
1/$
1M
0V
1Y
1h
0q
1t
0z
1}
0%"
1("
17"
1I"
0R"
1U"
0["
1^"
0d"
1g"
0:
b1000100 +
19
1?"
1D#
1_#
1z#
1%$
1U
1^
1p
1y
1$"
1Q"
1Z"
1c"
1l"
12#
1;#
1M#
b11110001111000111011000111011101 "
b11110001111000111011000111011101 *
1V#
#93
18
0="
1B#
1]#
1f#
1x#
1#$
1,$
1\
1w
1""
1+"
1X"
1a"
1j"
1A"
1B"
01
10
1:
09
1>"
0D#
1C#
0_#
1^#
0q#
1p#
0z#
1y#
0%$
1$$
1.$
1L
0U
1T
1g
0p
1o
0y
1x
0$"
1#"
16"
1H"
0Q"
1P"
0Z"
1Y"
b11110001000110000110101000000110 "
b11110001000110000110101000000110 *
0c"
b1110001110010001111111010 +
1b"
#94
0:
1=
0?"
0A"
0B"
1D#
1F#
1G#
1_#
1a#
1b#
1h#
1j#
1k#
1z#
1|#
1}#
1%$
1'$
1($
0.$
10$
0^
1a
1y
1{
1|
1$"
1&"
1'"
1-"
1Z"
1\"
1]"
1c"
1e"
1f"
b11110000110111110100100110111000 "
b11110000110111110100100110111000 *
0l"
1o"
#95
1="
1A
1e
1s"
19
1-$
1]
b11110001110110011111111110 +
1k"
#96
1?"
1A"
1B"
1C
0g
1i
b11110010110111110000110110111100 "
b11110010110111110000110110111100 *
1u"
#97
1n
b11110001111110011111111110 +
1f
#98
b11110010110111111000110110111100 "
b11110010110111111000110110111100 *
1p
1r
1s
#170
0;"
1*$
1H
12"
1D"
0V"
1q"
1%#
0I#
b1000100010001000100010001000100 %
b1000100010001000100010001000100 )
b10111011101110111011101110111011 $
b10111011101110111011101110111011 (
b10101010 '
#171
0.
0A#
0\#
0e#
0w#
0"$
0+$
1@
0I
0R
0m
0v
0!"
1*"
03"
0E"
0N"
0`"
1{"
1J#
b1000100010001000100010001000100 ,
1@"
0B"
0C"
0/$
11$
12$
0M
1P
07"
1:"
0I"
1L"
1["
0]"
0^"
1v"
1x"
1*#
0N#
#172
1S
1F"
1O"
1|"
12
05
1E#
0F#
0H#
1`#
0a#
0c#
1i#
0j#
0l#
1{#
0|#
0~#
1&$
0'$
0)$
1/$
00$
02$
1D
1E
1M
0P
1V
0Y
1q
0r
0t
1z
0{
0}
1%"
0&"
0("
1."
1/"
17"
0:"
1I"
0L"
1R"
0U"
1d"
0e"
0g"
1!#
1N#
0?"
1.$
0L
1K
06"
15"
0H"
1G"
0Z"
0u"
b111111101111111011111111110 +
1t"
1)#
b10111000100001111000011110111000 "
b10111000100001111000011110111000 *
0M#
#173
08
1J
0S
0\
14"
0F"
0O"
0X"
1X
1K"
1T"
1"#
11
00
0D#
0_#
0h#
0z#
0%$
0.$
0C
1B
1L
0K
0T
0p
0y
0$"
0-"
1,"
16"
05"
0G"
b111100011111100111111111100 +
0P"
0c"
b11111000000010000000100000000001 "
b11111000000010000000100000000001 *
1M#
#174
1\
1O"
1X"
1'#
1:
0=
0L
1O
1U
0X
1^
0a
06"
19"
1H"
0K"
1Q"
0T"
b11111000011100000011000000000011 "
b11111000011100000011000000000011 *
1Z"
0\"
1T
1G"
1P"
b1111111011111110111111111100 +
1}"
#175
0="
1S
0\
0e
1F"
0O"
0X"
0a"
0^
1a
0Q"
1T"
0Z"
1\"
b11110000000100000001000000000011 "
b11110000000100000001000000000011 *
0)#
1,#
09
1K
0T
0]
15"
0G"
0P"
b1111000111111001111111111000 +
0Y"
#176
1e
1X"
1a"
10#
1?"
0A"
0U
1X
1^
0a
1g
0i
0H"
1K"
1Q"
0T"
1Z"
0\"
b11110000111000000110000000000111 "
b11110000111000000110000000000111 *
1c"
0f"
1]
1P"
1Y"
b11111110111111101111111111000 +
1(#
#177
0B#
1\
0e
0n
1O"
0X"
0a"
0j"
0g
1i
0Z"
1\"
0c"
1f"
b11100000001000000010000000000111 "
b11100000001000000010000000000111 *
02#
15#
0>"
1T
0]
0f
1G"
0P"
0Y"
b11110001111110011111111110000 +
0b"
#178
1n
1a"
1j"
19#
1D#
0G#
0^
1a
1g
0i
1p
0s
0Q"
1T"
1Z"
0\"
1c"
0f"
b11100001110000001100000000001111 "
b11100001110000001100000000001111 *
1l"
0o"
1f
1Y"
1b"
b111111101111111011111111110000 +
11#
#179
0]#
1e
0n
0w
1X"
0a"
0j"
0s"
0p
1s
0c"
1f"
0l"
1o"
b11000000010000000100000000001111 "
b11000000010000000100000000001111 *
0;#
1>#
0C#
1]
0f
0o
1P"
0Y"
0b"
b111100011111100111111111100000 +
0k"
#180
1w
1j"
1s"
1K#
1_#
0b#
0g
1i
1p
0s
1y
0|
0Z"
1\"
1c"
0f"
1l"
0o"
b11000011100000011000000000011111 "
b11000011100000011000000000011111 *
1u"
0x"
1o
1b"
1k"
b1111111011111110111111111100000 +
1:#
#181
0f#
1n
0w
0""
1a"
0j"
0s"
0|"
0y
1|
0l"
1o"
0u"
1x"
b10000000100000001000000000011111 "
b10000000100000001000000000011111 *
0M#
1O#
0^#
1f
0o
0x
1Y"
0b"
0k"
b1111000111111001111111111000000 +
0t"
#182
1#
1""
1s"
1|"
1T#
1h#
0k#
0p
1s
1y
0|
1$"
0'"
0c"
1f"
1l"
0o"
1u"
0x"
b10000111000000110000000000111111 "
b10000111000000110000000000111111 *
1~"
0"#
1x
1k"
1t"
b11111110111111101111111111000000 +
1L#
#183
0o#
1w
0""
0+"
1j"
0s"
0|"
0'#
0$"
1'"
0u"
1x"
0~"
1"#
b1000000010000000000111111 "
b1000000010000000000111111 *
0V#
1Y#
0g#
1o
0x
0#"
1b"
0k"
0t"
b11110001111110011111111110000000 +
0}"
#184
0#
1+"
1|"
1'#
1!
1q#
0s#
0y
1|
1$"
0'"
1-"
0/"
0l"
1o"
1u"
0x"
1~"
0"#
b1110000001100000000001111111 "
b1110000001100000000001111111 *
1)#
0,#
1#"
1t"
1}"
b111111101111111011111111110000000 +
1U#
#185
0x#
1""
0+"
04"
1s"
0|"
0'#
00#
0-"
1/"
0~"
1"#
b10000000100000000001111111 "
b10000000100000000001111111 *
0)#
1,#
0p#
1x
0#"
0,"
1k"
0t"
0}"
b111100011111100111111111100000000 +
0(#
#186
14"
1'#
10#
1z#
0}#
0$"
1'"
1-"
0/"
16"
09"
0u"
1x"
1~"
0"#
1)#
0,#
b11100000011000000000011111111 "
b11100000011000000000011111111 *
12#
05#
1,"
1}"
b111111011111110111111111100000000 +
1(#
#187
0#$
1+"
04"
0F"
1|"
0'#
00#
09#
06"
19"
0)#
1,#
b100000001000000000011111111 "
b100000001000000000011111111 *
02#
15#
0y#
1#"
0,"
05"
1t"
0}"
0(#
b111000111111001111111111000000000 +
01#
#188
1F"
10#
19#
1%$
0($
0-"
1/"
16"
09"
1H"
0K"
0~"
1"#
1)#
0,#
12#
05#
b111000000110000000000111111111 "
b111000000110000000000111111111 *
1;#
0>#
15"
1(#
b111110111111101111111111000000000 +
11#
#189
0,$
14"
0F"
0O"
1'#
00#
09#
0K#
0H"
1K"
02#
15#
b1000000010000000000111111111 "
b1000000010000000000111111111 *
0;#
1>#
0$$
1,"
05"
0G"
1}"
0(#
01#
b110001111110011111111110000000000 +
0:#
#190
1O"
19#
1K#
1.$
01$
06"
19"
1H"
0K"
1Q"
0T"
0)#
1,#
12#
05#
1;#
0>#
b1110000001100000000001111111111 "
b1110000001100000000001111111111 *
1M#
0O#
1G"
11#
b111101111111011111111110000000000 +
1:#
#191
1#
0A
1F"
0O"
0X"
10#
09#
0K#
0T#
0Q"
1T"
0;#
1>#
b10000000100000000001111111111 "
b10000000100000000001111111111 *
0M#
1O#
0-$
15"
0G"
0P"
1(#
01#
0:#
b100011111100111111111100000000000 +
0L#
#192
0#
1X"
1K#
1T#
1C
0E
0H"
1K"
1Q"
0T"
1Z"
0\"
02#
15#
1;#
0>#
1M#
0O#
b11100000011000000000011111111111 "
b11100000011000000000011111111111 *
1V#
0Y#
1P"
1:#
b111011111110111111111100000000000 +
1L#
#193
0J
1O"
0X"
0a"
19#
0K#
0T#
0!
0Z"
1\"
0M#
1O#
b100000001000000000011111111111 "
b100000001000000000011111111111 *
0V#
1Y#
0B
1G"
0P"
0Y"
11#
0:#
0L#
b111111001111111111000000000000 +
0U#
#194
1a"
1T#
1!
1L
0O
0Q"
1T"
1Z"
0\"
1c"
0f"
0;#
1>#
1M#
0O#
b11000000110000000000111111111111 "
b11000000110000000000111111111111 *
1V#
0Y#
1Y"
1L#
b110111111101111111111000000000000 +
1U#
#195
0S
1X"
0a"
0j"
1K#
0T#
0!
0c"
1f"
b1000000010000000000111111111111 "
b1000000010000000000111111111111 *
0V#
1Y#
0K
1P"
0Y"
0b"
1:#
0L#
b1111110011111111110000000000000 +
0U#
#196
1#
1j"
1!
1U
0X
0Z"
1\"
1c"
0f"
1l"
0o"
0M#
1O#
b10000001100000000001111111111111 "
b10000001100000000001111111111111 *
1V#
0Y#
1b"
b101111111011111111110000000000000 +
1U#
#197
0\
1a"
0j"
0s"
1T#
0!
b10000000100000000001111111111111 "
b10000000100000000001111111111111 *
0l"
1o"
0T
1Y"
0b"
0k"
1L#
b11111100111111111100000000000000 +
0U#
#198
1s"
1^
0a
0c"
1f"
1l"
0o"
1u"
0x"
b11000000000011111111111111 "
b11000000000011111111111111 *
0V#
1Y#
b11111110111111111100000000000000 +
1k"
#199
0#
0e
1j"
0s"
0|"
1!
b1000000000011111111111111 "
b1000000000011111111111111 *
0u"
1x"
0]
1b"
0k"
0t"
b111111001111111111000000000000000 +
1U#
#200
1|"
1g
0i
0l"
1o"
1u"
0x"
b110000000000111111111111111 "
b110000000000111111111111111 *
1~"
0"#
b111111101111111111000000000000000 +
1t"
#201
0n
1s"
0|"
0'#
b10000000000111111111111111 "
b10000000000111111111111111 *
0~"
1"#
0f
1k"
0t"
b111110011111111110000000000000000 +
0}"
#202
1'#
1p
0s
0u"
1x"
1~"
0"#
b1100000000001111111111111111 "
b1100000000001111111111111111 *
1)#
0,#
b111111011111111110000000000000000 +
1}"
#203
0w
1|"
0'#
00#
b100000000001111111111111111 "
b100000000001111111111111111 *
0)#
1,#
0o
1t"
0}"
b111100111111111100000000000000000 +
0(#
#204
10#
1y
0|
0~"
1"#
1)#
0,#
b11000000000011111111111111111 "
b11000000000011111111111111111 *
12#
05#
b111110111111111100000000000000000 +
1(#
#205
0""
1'#
00#
09#
b1000000000011111111111111111 "
b1000000000011111111111111111 *
02#
15#
0x
1}"
0(#
b111001111111111000000000000000000 +
01#
#206
19#
1$"
0'"
0)#
1,#
12#
05#
b110000000000111111111111111111 "
b110000000000111111111111111111 *
1;#
0>#
b111101111111111000000000000000000 +
11#
#207
0+"
10#
09#
0K#
b10000000000111111111111111111 "
b10000000000111111111111111111 *
0;#
1>#
0#"
1(#
01#
b110011111111110000000000000000000 +
0:#
#208
1K#
1-"
0/"
02#
15#
1;#
0>#
b1100000000001111111111111111111 "
b1100000000001111111111111111111 *
1M#
0O#
b111011111111110000000000000000000 +
1:#
#209
1#
04"
19#
0K#
0T#
b100000000001111111111111111111 "
b100000000001111111111111111111 *
0M#
1O#
0,"
11#
0:#
b100111111111100000000000000000000 +
0L#
#210
0#
1T#
16"
09"
0;#
1>#
1M#
0O#
b11000000000011111111111111111111 "
b11000000000011111111111111111111 *
1V#
0Y#
b110111111111100000000000000000000 +
1L#
#211
0F"
1K#
0T#
0!
b1000000000011111111111111111111 "
b1000000000011111111111111111111 *
0V#
1Y#
05"
1:#
0L#
b1111111111000000000000000000000 +
0U#
#212
1#
1!
1H"
0K"
0M#
1O#
b10000000000111111111111111111111 "
b10000000000111111111111111111111 *
1V#
0Y#
b101111111111000000000000000000000 +
1U#
#213
0O"
1T#
0!
0G"
1L#
b11111111110000000000000000000000 +
0U#
#214
1Q"
0T"
b1111111111111111111111 "
b1111111111111111111111 *
0V#
1Y#
#215
0#
0X"
1!
0P"
b111111111100000000000000000000000 +
1U#
#216
b11111111111111111111111 "
b11111111111111111111111 *
1Z"
0\"
#217
0a"
b111111111000000000000000000000000 +
0Y"
#218
b111111111111111111111111 "
b111111111111111111111111 *
1c"
0f"
#219
0j"
b111111110000000000000000000000000 +
0b"
#220
b1111111111111111111111111 "
b1111111111111111111111111 *
1l"
0o"
#221
0s"
b111111100000000000000000000000000 +
0k"
#222
b11111111111111111111111111 "
b11111111111111111111111111 *
1u"
0x"
#223
0|"
b111111000000000000000000000000000 +
0t"
#224
b111111111111111111111111111 "
b111111111111111111111111111 *
1~"
0"#
#225
0'#
b111110000000000000000000000000000 +
0}"
#226
b1111111111111111111111111111 "
b1111111111111111111111111111 *
1)#
0,#
#227
00#
b111100000000000000000000000000000 +
0(#
#228
b11111111111111111111111111111 "
b11111111111111111111111111111 *
12#
05#
#229
09#
b111000000000000000000000000000000 +
01#
#230
b111111111111111111111111111111 "
b111111111111111111111111111111 *
1;#
0>#
#231
0K#
b110000000000000000000000000000000 +
0:#
#232
b1111111111111111111111111111111 "
b1111111111111111111111111111111 *
1M#
0O#
#233
1#
0T#
b100000000000000000000000000000000 +
0L#
#234
b11111111111111111111111111111111 "
b11111111111111111111111111111111 *
1V#
0Y#
#235
0#
0!
b0 +
0U#
#250
0-
06
0@#
0[#
0d#
0v#
0!$
0*$
0H
0Q
0Z
0l
0~
02"
0D"
0M"
0_"
0h"
0q"
0%#
0.#
07#
0R#
b1111111111111111 %
b1111111111111111 )
b10000000000000000 $
b10000000000000000 (
b11111010 '
#251
1.
17
1A#
1\#
1e#
1w#
1"$
1+$
1I
1R
1[
1m
0*"
0W"
0{"
0J#
b1111111111111111 ,
02
0;
0E#
0`#
0i#
0{#
0&$
0/$
0M
0V
0_
0q
0%"
07"
0I"
0R"
0d"
0m"
0v"
0*#
03#
0<#
0W#
#252
12
1;
1E#
1`#
1i#
1{#
1&$
1/$
1M
1V
1_
1q
0."
0["
0!#
0N#
01
0:
0D#
0_#
0h#
0z#
0%$
0.$
0L
0U
0^
0p
0$"
06"
0H"
0Q"
0c"
0l"
0u"
0)#
02#
0;#
b1000100010001010100010001000100 "
b1000100010001010100010001000100 *
0V#
#253
11
1:
1D#
1_#
1h#
1z#
1%$
1.$
1L
1U
1^
1p
0-"
0Z"
0~"
b11111111111111111 "
b11111111111111111 *
0M#
#330
1-
1;"
1@#
1[#
1d#
1v#
1*$
1?
1H
1Z
1c
1l
12"
1_"
1z"
1%#
1.#
17#
b110111111111111101111100110101 %
b110111111111111101111100110101 )
b111100100010011110111010111101 $
b111100100010011110111010111101 (
b101001010 '
